…
That's still more than what we actually need. We can create a ```DataFrame``` to select just the information of ```K``` and the ```Accuracy```. The values of ```K``` are stored in a ```Matrix{Any}```, so it's better to transform them into a vector and convert their type to ```Int64```:

```Julia
# Retrieve our plotting data, transform into DataFrame. Convert the type of K
dat = DataFrame(K = convert(Array{Int64}, vec(res.parameter_values)), 
              Accuracy = res.measurements)
```

```Julia
20×2 DataFrame
 Row │ K      Accuracy 
     │ Int64  Float64
─────┼─────────────────
   1 │    17  0.862727
   2 │     6  0.882727
  ⋮  │   ⋮       ⋮
  19 │     2  0.853636
  20 │    12  0.892727
        16 rows omitted
```

Unfortunately, the values of ```K``` in our ```Dataframe``` appear in no particular order, so we have to sort them by row:

```Julia
# Define the sort order: the value of K increased by one unit
the_order = sort(dat.K);

# Sort the data based on the value of K
dat_sort = @rorderby dat findfirst(==(:K), the_order)
```

```Julia
20×2 DataFrame
 Row │ K      Accuracy 
     │ Int64  Float64
─────┼─────────────────
   1 │     1  0.864545
   2 │     2  0.853636
  ⋮  │   ⋮       ⋮
  19 │    19  0.852727
  20 │    20  0.833636
        16 rows omitted
```
…
