…
```Julia
# Transform, re-assign the feature data
features = MLJ.transform(trans, features);

# Inspect our transformed data
first(features, 5) 
```

```Julia
5×16 DataFrame
 Row │ Pclass   Sex__female  Sex__male  Age        Fare        Embarked__C  Embarked__Q  Embarked__S  FamSize  Salutation__Dr  Salutation__Master  Salutation__Miss  Salutation__Mr ⋯
     │ Float64  Float64      Float64    Float64    Float64     Float64      Float64      Float64      Float64  Float64         Float64             Float64           Float64        ⋯
─────┼───────────────────────────────────────────────────────────────────────────────────────────────────────────────────────────────────────────────────────────────────────────────
   1 │     3.0          0.0        1.0  -0.258192  -0.234019           0.0          0.0          1.0      3.0             0.0                 0.0               0.0             1.0 ⋯
  ⋮  │    ⋮          ⋮           ⋮          ⋮          ⋮            ⋮            ⋮            ⋮          ⋮           ⋮                 ⋮                  ⋮                ⋮        ⋱
                                                                                                                                                         3 columns and 4 rows omitted
```
…
The path to the unlabeled data can be found in the project repository:

```Julia
# Path to unlabeled data
path = "test.csv";

# Load the data to our machine
titanic_unlabeled = DataFrame(CSV.File(path));

# Inspect our data
first(titanic_unlabeled, 10)
```

```Julia
10×11 DataFrame
 Row │ PassengerId  Pclass  Name                               Sex      Age       SibSp  Parch  Ticket     Fare      Cabin      Embarked 
     │ Int64        Int64   String                             String7  Float64?  Int64  Int64  String31   Float64?  String15?  String1
─────┼───────────────────────────────────────────────────────────────────────────────────────────────────────────────────────────────────
   1 │         892       3  Kelly, Mr. James                   male         34.5      0      0  330911       7.8292  missing    Q
   2 │         893       3  Wilkes, Mrs. James (Ellen Needs)   female       47.0      1      0  363272       7.0     missing    S
   3 │         894       2  Myles, Mr. Thomas Francis          male         62.0      0      0  240276       9.6875  missing    Q
  ⋮  │      ⋮         ⋮                     ⋮                     ⋮        ⋮        ⋮      ⋮        ⋮         ⋮          ⋮         ⋮
   8 │         899       2  Caldwell, Mr. Albert Francis       male         26.0      1      1  248738      29.0     missing    S
   9 │         900       3  Abrahim, Mrs. Joseph (Sophie Hal…  female       18.0      0      0  2657         7.2292  missing    C
  10 │         901       3  Davies, Mr. John Samuel            male         21.0      2      0  A/4 48871   24.15    missing    S
                                                                                                                           4 rows omitted
```
…
