…
* The ```Name``` column has salutation information, which we've already extracted and created as a new input feature. We can omit this feature as well;

* The ```Famsize``` column contains information of ```SibSp``` and ```Parch``` columns combine, so we drop both of them;

* We will handle the ```Cabin``` column in the next section, since it has ```missing``` data.

With that in mind, let's perform feature selection:

```Julia
# Perform feature selection
titanic = select!(titanic, Not([:PassengerId, :Ticket, :Name, :SibSp, :Parch]))
```

```Julia
891×9 DataFrame
 Row │ Survived  Pclass  Sex      Age        Fare     Cabin      Embarked  FamSize  Salutation 
     │ Int64     Int64   String7  Float64?   Float64  String15?  String1?  Int64    String
─────┼─────────────────────────────────────────────────────────────────────────────────────────
   1 │        0       3  male          22.0   7.25    missing    S               1  Mr
  ⋮  │    ⋮        ⋮        ⋮         ⋮         ⋮         ⋮         ⋮         ⋮         ⋮
                                                                               890 rows omitted
```
…
After training, the imputer now can be used to replace all missing value in the data:

```Julia
# Impute all missing value in the data
titanic = MLJ.transform(filler, titanic)
```

```Julia
891×8 DataFrame
 Row │ Survived  Pclass  Sex     Age      Fare     Embarked  FamSize  Salutation 
     │ Cat…      Cat…    Cat…    Float64  Float64  Cat…      Int64    Cat…
─────┼───────────────────────────────────────────────────────────────────────────
   1 │ 0         3       male       22.0   7.25    S               1  Mr
  ⋮  │    ⋮        ⋮       ⋮        ⋮        ⋮        ⋮         ⋮         ⋮
                                                                 890 rows omitted
```
…
